{
    "Main.json": {
        "screensaver": {},
        "keys": {
            "0x0": {
                "states": {
                    "0": {
                        "labels": {
                            "bottom": {
                                "text": "Starting Soon",
                                "color": [
                                    255,
                                    255,
                                    255,
                                    255
                                ],
                                "font_size": null,
                                "font_family": ""
                            }
                        },
                        "background": {},
                        "media": {
                            "path": "/home/jaryed/.var/app/com.core447.StreamController/data/Assets/AssetManager/Assets/Scene-1-On.png"
                        },
                        "actions": [
                            {
                                "id": "com_core447_OBSPlugin::SwitchScene",
                                "settings": {
                                    "scene": "STARTING_SOON"
                                }
                            }
                        ]
                    }
                }
            },
            "1x0": {
                "states": {
                    "0": {
                        "labels": {
                            "bottom": {
                                "text": "Face Camera",
                                "color": [
                                    255,
                                    255,
                                    255,
                                    255
                                ],
                                "font_size": null,
                                "font_family": ""
                            }
                        },
                        "background": {},
                        "media": {
                            "path": "/home/jaryed/.var/app/com.core447.StreamController/data/Assets/AssetManager/Assets/Scene-2-On.png"
                        },
                        "actions": [
                            {
                                "id": "com_core447_OBSPlugin::SwitchScene",
                                "settings": {
                                    "scene": "FaceCam"
                                }
                            }
                        ],
                        "image-control-action": 0,
                        "label-control-actions": [
                            0,
                            0,
                            0
                        ]
                    }
                }
            },
            "2x0": {
                "states": {
                    "0": {
                        "labels": {
                            "bottom": {
                                "text": "C922",
                                "color": [
                                    255,
                                    255,
                                    255,
                                    255
                                ],
                                "font_size": null,
                                "font_family": ""
                            }
                        },
                        "background": {},
                        "media": {
                            "path": "/home/jaryed/.var/app/com.core447.StreamController/data/Assets/AssetManager/Assets/Scene-4-On.png"
                        },
                        "actions": [
                            {
                                "id": "com_core447_OBSPlugin::SwitchScene",
                                "settings": {
                                    "scene": "C922"
                                }
                            }
                        ],
                        "image-control-action": 0,
                        "label-control-actions": [
                            0,
                            0,
                            0
                        ]
                    }
                }
            },
            "3x0": {
                "states": {
                    "0": {
                        "labels": {
                            "bottom": {
                                "text": null,
                                "color": null,
                                "font_size": null,
                                "font_family": ""
                            }
                        },
                        "background": {},
                        "media": {},
                        "actions": []
                    }
                }
            },
            "4x0": {
                "states": {
                    "0": {
                        "labels": {
                            "bottom": {
                                "text": "EarthWat",
                                "color": [
                                    255,
                                    255,
                                    255,
                                    255
                                ],
                                "font_size": null,
                                "font_family": ""
                            }
                        },
                        "background": {},
                        "media": {
                            "path": "/home/jaryed/.var/app/com.core447.StreamController/data/Assets/AssetManager/Assets/Audio-On.png"
                        },
                        "actions": [
                            {
                                "id": "com_core447_OSPlugin::RunCommand",
                                "settings": {
                                    "command": "sendmidi dev \"Midi Through Port-0\" on 24 127"
                                }
                            }
                        ]
                    }
                }
            },
            "5x0": {
                "states": {
                    "0": {
                        "labels": {
                            "bottom": {
                                "text": "TrulyEpicLul",
                                "color": [
                                    255,
                                    255,
                                    255,
                                    255
                                ],
                                "font_size": null,
                                "font_family": ""
                            }
                        },
                        "background": {},
                        "media": {
                            "path": "/home/jaryed/.var/app/com.core447.StreamController/data/Assets/AssetManager/Assets/Audio-On.png"
                        },
                        "actions": [
                            {
                                "id": "com_core447_OSPlugin::RunCommand",
                                "settings": {
                                    "command": "sendmidi dev \"Midi Through Port-0\" on 27 127"
                                }
                            }
                        ]
                    }
                }
            },
            "6x0": {
                "states": {
                    "0": {
                        "labels": {
                            "bottom": {
                                "text": "N/A",
                                "color": [
                                    255,
                                    255,
                                    255,
                                    255
                                ],
                                "font_size": null,
                                "font_family": ""
                            }
                        },
                        "background": {},
                        "media": {
                            "path": "/home/jaryed/.var/app/com.core447.StreamController/data/Assets/AssetManager/Assets/Audio-Off.png"
                        },
                        "actions": [
                            {
                                "id": "com_core447_OSPlugin::RunCommand",
                                "settings": {
                                    "command": "sendmidi dev \"Midi Through Port-0\" on 30 127"
                                }
                            }
                        ]
                    }
                }
            },
            "7x0": {
                "states": {
                    "0": {
                        "labels": {
                            "bottom": {
                                "text": null,
                                "color": null,
                                "font_size": null,
                                "font_family": ""
                            }
                        },
                        "background": {},
                        "media": {},
                        "actions": []
                    }
                }
            },
            "0x1": {
                "states": {
                    "0": {
                        "labels": {
                            "bottom": {
                                "text": "Desktop\nFaceCam\nTop Left",
                                "color": [
                                    255,
                                    255,
                                    255,
                                    255
                                ],
                                "font_size": null,
                                "font_family": ""
                            }
                        },
                        "background": {},
                        "media": {
                            "path": "/home/jaryed/.var/app/com.core447.StreamController/data/Assets/AssetManager/Assets/Scene-3-On.png"
                        },
                        "actions": [
                            {
                                "id": "com_core447_OBSPlugin::SwitchScene",
                                "settings": {
                                    "scene": "Desktop-TLCam"
                                }
                            }
                        ],
                        "image-control-action": 0,
                        "label-control-actions": [
                            0,
                            0,
                            0
                        ]
                    }
                }
            },
            "1x1": {
                "states": {
                    "0": {
                        "labels": {
                            "bottom": {
                                "text": "Desktop\nFaceCam\nTop Right",
                                "color": [
                                    255,
                                    255,
                                    255,
                                    255
                                ],
                                "font_size": null,
                                "font_family": ""
                            }
                        },
                        "background": {},
                        "media": {
                            "path": "/home/jaryed/.var/app/com.core447.StreamController/data/Assets/AssetManager/Assets/Scene-3-On.png"
                        },
                        "actions": [
                            {
                                "id": "com_core447_OBSPlugin::SwitchScene",
                                "settings": {
                                    "scene": "Desktop-TRCam"
                                }
                            }
                        ],
                        "image-control-action": 0,
                        "label-control-actions": [
                            0,
                            0,
                            0
                        ]
                    }
                }
            },
            "3x1": {
                "states": {
                    "0": {
                        "labels": {
                            "bottom": {
                                "text": null,
                                "color": null,
                                "font_size": null,
                                "font_family": ""
                            }
                        },
                        "background": {},
                        "media": {},
                        "actions": []
                    }
                }
            },
            "4x1": {
                "states": {
                    "0": {
                        "labels": {
                            "bottom": {
                                "text": "MLG Horn",
                                "color": [
                                    255,
                                    255,
                                    255,
                                    255
                                ],
                                "font_size": null,
                                "font_family": ""
                            }
                        },
                        "background": {},
                        "media": {
                            "path": "/home/jaryed/.var/app/com.core447.StreamController/data/Assets/AssetManager/Assets/Audio-On.png"
                        },
                        "actions": [
                            {
                                "id": "com_core447_OSPlugin::RunCommand",
                                "settings": {
                                    "command": "sendmidi dev \"Midi Through Port-0\" on 25 127"
                                }
                            }
                        ]
                    }
                }
            },
            "5x1": {
                "states": {
                    "0": {
                        "labels": {
                            "bottom": {
                                "text": "Emotional\n Damage",
                                "color": [
                                    255,
                                    255,
                                    255,
                                    255
                                ],
                                "font_size": null,
                                "font_family": ""
                            }
                        },
                        "background": {},
                        "media": {
                            "path": "/home/jaryed/.var/app/com.core447.StreamController/data/Assets/AssetManager/Assets/Audio-On.png"
                        },
                        "actions": [
                            {
                                "id": "com_core447_OSPlugin::RunCommand",
                                "settings": {
                                    "command": "sendmidi dev \"Midi Through Port-0\" on 28 127"
                                }
                            }
                        ]
                    }
                }
            },
            "6x1": {
                "states": {
                    "0": {
                        "labels": {
                            "bottom": {
                                "text": "N/A",
                                "color": [
                                    255,
                                    255,
                                    255,
                                    255
                                ],
                                "font_size": null,
                                "font_family": ""
                            }
                        },
                        "background": {},
                        "media": {
                            "path": "/home/jaryed/.var/app/com.core447.StreamController/data/Assets/AssetManager/Assets/Audio-Off.png"
                        },
                        "actions": [
                            {
                                "id": "com_core447_OSPlugin::RunCommand",
                                "settings": {
                                    "command": "sendmidi dev \"Midi Through Port-0\" on 31 127"
                                }
                            }
                        ]
                    }
                }
            },
            "7x1": {
                "states": {
                    "0": {
                        "labels": {
                            "bottom": {
                                "text": null,
                                "color": null,
                                "font_size": null,
                                "font_family": ""
                            }
                        },
                        "background": {},
                        "media": {},
                        "actions": []
                    }
                }
            },
            "0x2": {
                "states": {
                    "0": {
                        "labels": {
                            "bottom": {
                                "text": "Desktop\nFaceCam\nBottom Left",
                                "color": [
                                    255,
                                    255,
                                    255,
                                    255
                                ],
                                "font_size": null,
                                "font_family": ""
                            }
                        },
                        "background": {},
                        "media": {
                            "path": "/home/jaryed/.var/app/com.core447.StreamController/data/Assets/AssetManager/Assets/Scene-3-On.png"
                        },
                        "actions": [
                            {
                                "id": "com_core447_OBSPlugin::SwitchScene",
                                "settings": {
                                    "scene": "Desktop-BLCam"
                                }
                            }
                        ],
                        "image-control-action": 0,
                        "label-control-actions": [
                            0,
                            0,
                            0
                        ]
                    }
                }
            },
            "1x2": {
                "states": {
                    "0": {
                        "labels": {
                            "bottom": {
                                "text": "Desktop\nFaceCam\nBottom Right",
                                "color": [
                                    255,
                                    255,
                                    255,
                                    255
                                ],
                                "font_size": null,
                                "font_family": ""
                            }
                        },
                        "background": {},
                        "media": {
                            "path": "/home/jaryed/.var/app/com.core447.StreamController/data/Assets/AssetManager/Assets/Scene-3-On.png"
                        },
                        "actions": [
                            {
                                "id": "com_core447_OBSPlugin::SwitchScene",
                                "settings": {
                                    "scene": "Desktop-BRCam"
                                }
                            }
                        ],
                        "image-control-action": 0,
                        "label-control-actions": [
                            0,
                            0,
                            0
                        ]
                    }
                }
            },
            "2x2": {
                "states": {
                    "0": {
                        "labels": {
                            "bottom": {
                                "text": null,
                                "color": null,
                                "font_size": null,
                                "font_family": ""
                            }
                        },
                        "background": {},
                        "media": {},
                        "actions": []
                    }
                }
            },
            "3x2": {
                "states": {
                    "0": {
                        "labels": {
                            "bottom": {
                                "text": "",
                                "color": [
                                    255,
                                    255,
                                    255,
                                    255
                                ],
                                "font_size": null,
                                "font_family": ""
                            }
                        },
                        "background": {},
                        "media": {},
                        "actions": []
                    }
                }
            },
            "4x2": {
                "states": {
                    "0": {
                        "labels": {
                            "bottom": {
                                "text": "CUM",
                                "color": [
                                    255,
                                    255,
                                    255,
                                    255
                                ],
                                "font_size": null,
                                "font_family": ""
                            }
                        },
                        "background": {},
                        "media": {
                            "path": "/home/jaryed/.var/app/com.core447.StreamController/data/Assets/AssetManager/Assets/Audio-On.png"
                        },
                        "actions": [
                            {
                                "id": "com_core447_OSPlugin::RunCommand",
                                "settings": {
                                    "command": "sendmidi dev \"Midi Through Port-0\" on 26 127"
                                }
                            }
                        ]
                    }
                }
            },
            "5x2": {
                "states": {
                    "0": {
                        "labels": {
                            "bottom": {
                                "text": "MONKE\nFLIP",
                                "color": [
                                    255,
                                    255,
                                    255,
                                    255
                                ],
                                "font_size": null,
                                "font_family": ""
                            }
                        },
                        "background": {},
                        "media": {
                            "path": "/home/jaryed/.var/app/com.core447.StreamController/data/Assets/AssetManager/Assets/Audio-On.png"
                        },
                        "actions": [
                            {
                                "id": "com_core447_OSPlugin::RunCommand",
                                "settings": {
                                    "command": "sendmidi dev \"Midi Through Port-0\" on 29 127"
                                }
                            }
                        ]
                    }
                }
            },
            "6x2": {
                "states": {
                    "0": {
                        "labels": {
                            "bottom": {
                                "text": "N/A",
                                "color": [
                                    255,
                                    255,
                                    255,
                                    255
                                ],
                                "font_size": null,
                                "font_family": ""
                            }
                        },
                        "background": {},
                        "media": {
                            "path": "/home/jaryed/.var/app/com.core447.StreamController/data/Assets/AssetManager/Assets/Audio-Off.png"
                        },
                        "actions": [
                            {
                                "id": "com_core447_OSPlugin::RunCommand",
                                "settings": {
                                    "command": "sendmidi dev \"Midi Through Port-0\" on 32 127"
                                }
                            }
                        ]
                    }
                }
            },
            "7x2": {
                "states": {
                    "0": {
                        "labels": {
                            "bottom": {
                                "text": null,
                                "color": null,
                                "font_size": null,
                                "font_family": ""
                            }
                        },
                        "background": {},
                        "media": {},
                        "actions": []
                    }
                }
            },
            "4x3": {
                "states": {
                    "0": {
                        "labels": {
                            "bottom": {
                                "text": null,
                                "color": null,
                                "font_size": null,
                                "font_family": ""
                            }
                        },
                        "background": {},
                        "media": {},
                        "actions": [
                            {
                                "id": "com_core447_OSPlugin::RunCommand",
                                "settings": {
                                    "command": "sendmidi dev \"Midi Through Port-0\" on 34 127"
                                }
                            }
                        ]
                    }
                }
            },
            "5x3": {
                "states": {
                    "0": {
                        "labels": {
                            "bottom": {
                                "text": "Play \nRecording",
                                "color": [
                                    255,
                                    255,
                                    255,
                                    255
                                ],
                                "font_size": null,
                                "font_family": ""
                            }
                        },
                        "background": {},
                        "media": {
                            "path": "/home/jaryed/.var/app/com.core447.StreamController/data/Assets/AssetManager/Assets/Audio-On.png"
                        },
                        "actions": [
                            {
                                "id": "com_core447_OSPlugin::RunCommand",
                                "settings": {
                                    "command": "/mnt/DATA_LINUX/code/tools/streamScripts/play-wav_history.sh 0"
                                }
                            }
                        ]
                    }
                }
            },
            "6x3": {
                "states": {
                    "0": {
                        "labels": {
                            "bottom": {
                                "text": "Start\nRecording",
                                "color": [
                                    255,
                                    255,
                                    255,
                                    255
                                ],
                                "font_size": null,
                                "font_family": ""
                            }
                        },
                        "background": {},
                        "media": {
                            "path": "/home/jaryed/.var/app/com.core447.StreamController/data/Assets/AssetManager/Assets/Record-Off.png"
                        },
                        "actions": [
                            {
                                "id": "com_core447_OSPlugin::RunCommand",
                                "settings": {
                                    "command": "/home/jaryed/.local/bin/sendosc 127.0.0.1 7133 /start"
                                }
                            }
                        ]
                    },
                    "1": {
                        "labels": {
                            "bottom": {
                                "text": "Stop\nRecording",
                                "color": [
                                    255,
                                    255,
                                    255,
                                    255
                                ],
                                "font_size": null,
                                "font_family": ""
                            }
                        },
                        "background": {},
                        "media": {
                            "path": "/home/jaryed/.var/app/com.core447.StreamController/data/Assets/AssetManager/Assets/Record_On_Animated.gif"
                        },
                        "actions": [
                            {
                                "id": "com_core447_OSPlugin::RunCommand",
                                "settings": {
                                    "command": "/home/jaryed/.local/bin/sendosc 127.0.0.1 7133 /stop"
                                }
                            }
                        ]
                    }
                }
            },
            "7x3": {
                "states": {
                    "0": {
                        "labels": {
                            "bottom": {
                                "text": "Previous \nRecordings",
                                "color": [
                                    255,
                                    255,
                                    255,
                                    255
                                ],
                                "font_size": null,
                                "font_family": ""
                            }
                        },
                        "background": {},
                        "media": {
                            "path": "/home/jaryed/.var/app/com.core447.StreamController/data/Assets/AssetManager/Assets/Misc-Folder.png"
                        },
                        "actions": [
                            {
                                "id": "com_core447_DeckPlugin::ChangePage",
                                "settings": {
                                    "selected_page": "/home/jaryed/.var/app/com.core447.StreamController/data/pages/RecordingHistory.json",
                                    "deck_number": null
                                }
                            }
                        ]
                    }
                }
            },
            "0x3": {
                "states": {
                    "0": {
                        "actions": [
                            {
                                "id": "com_core447_OSPlugin::RunCommand",
                                "settings": {
                                    "command": "/mnt/DATA_LINUX/code/tools/streamScripts/toggleAllScenesItem.sh Death-While-you-wait ",
                                    "display_output": false
                                }
                            }
                        ],
                        "image-control-action": null,
                        "label-control-actions": [
                            0,
                            0,
                            0
                        ],
                        "labels": {
                            "bottom": {
                                "text": "Toggle BGM"
                            }
                        },
                        "media": {
                            "path": "/home/jaryed/.var/app/com.core447.StreamController/data/Assets/AssetManager/Assets/Audio-On.png"
                        }
                    }
                }
            }
        }
    },
    "RecordingHistory.json": {
        "keys": {
            "0x0": {
                "states": {
                    "0": {
                        "labels": {
                            "bottom": {
                                "text": "1",
                                "color": [
                                    255,
                                    255,
                                    255,
                                    255
                                ],
                                "font_size": null,
                                "font_family": ""
                            }
                        },
                        "background": {},
                        "media": {
                            "path": "/home/jaryed/.var/app/com.core447.StreamController/data/Assets/AssetManager/Assets/Audio-On.png"
                        },
                        "actions": [
                            {
                                "id": "com_core447_OSPlugin::RunCommand",
                                "settings": {
                                    "command": "/mnt/DATA_LINUX/code/tools/streamScripts/play-wav_history.sh 1"
                                }
                            }
                        ]
                    }
                }
            },
            "1x0": {
                "states": {
                    "0": {
                        "labels": {
                            "bottom": {
                                "text": "5",
                                "color": [
                                    255,
                                    255,
                                    255,
                                    255
                                ],
                                "font_size": null,
                                "font_family": ""
                            }
                        },
                        "background": {},
                        "media": {
                            "path": "/home/jaryed/.var/app/com.core447.StreamController/data/Assets/AssetManager/Assets/Audio-On.png"
                        },
                        "actions": [
                            {
                                "id": "com_core447_OSPlugin::RunCommand",
                                "settings": {
                                    "command": "/mnt/DATA_LINUX/code/tools/streamScripts/play-wav_history.sh 5"
                                }
                            }
                        ]
                    }
                }
            },
            "2x0": {
                "states": {
                    "0": {
                        "labels": {
                            "bottom": {
                                "text": "9",
                                "color": [
                                    255,
                                    255,
                                    255,
                                    255
                                ],
                                "font_size": null,
                                "font_family": ""
                            }
                        },
                        "background": {},
                        "media": {
                            "path": "/home/jaryed/.var/app/com.core447.StreamController/data/Assets/AssetManager/Assets/Audio-On.png"
                        },
                        "actions": [
                            {
                                "id": "com_core447_OSPlugin::RunCommand",
                                "settings": {
                                    "command": "/mnt/DATA_LINUX/code/tools/streamScripts/play-wav_history.sh 9"
                                }
                            }
                        ]
                    }
                }
            },
            "3x0": {
                "states": {
                    "0": {
                        "labels": {
                            "bottom": {
                                "text": "13",
                                "color": [
                                    255,
                                    255,
                                    255,
                                    255
                                ],
                                "font_size": null,
                                "font_family": ""
                            }
                        },
                        "background": {},
                        "media": {
                            "path": "/home/jaryed/.var/app/com.core447.StreamController/data/Assets/AssetManager/Assets/Audio-On.png"
                        },
                        "actions": [
                            {
                                "id": "com_core447_OSPlugin::RunCommand",
                                "settings": {
                                    "command": "/mnt/DATA_LINUX/code/tools/streamScripts/play-wav_history.sh 13"
                                }
                            }
                        ]
                    }
                }
            },
            "4x0": {
                "states": {
                    "0": {
                        "labels": {
                            "bottom": {
                                "text": "17",
                                "color": [
                                    255,
                                    255,
                                    255,
                                    255
                                ],
                                "font_size": null,
                                "font_family": ""
                            }
                        },
                        "background": {},
                        "media": {
                            "path": "/home/jaryed/.var/app/com.core447.StreamController/data/Assets/AssetManager/Assets/Audio-On.png"
                        },
                        "actions": [
                            {
                                "id": "com_core447_OSPlugin::RunCommand",
                                "settings": {
                                    "command": "/mnt/DATA_LINUX/code/tools/streamScripts/play-wav_history.sh 17"
                                }
                            }
                        ]
                    }
                }
            },
            "5x0": {
                "states": {
                    "0": {
                        "labels": {
                            "bottom": {
                                "text": "21",
                                "color": [
                                    255,
                                    255,
                                    255,
                                    255
                                ],
                                "font_size": null,
                                "font_family": ""
                            }
                        },
                        "background": {},
                        "media": {
                            "path": "/home/jaryed/.var/app/com.core447.StreamController/data/Assets/AssetManager/Assets/Audio-On.png"
                        },
                        "actions": [
                            {
                                "id": "com_core447_OSPlugin::RunCommand",
                                "settings": {
                                    "command": "/mnt/DATA_LINUX/code/tools/streamScripts/play-wav_history.sh 21"
                                }
                            }
                        ]
                    }
                }
            },
            "6x0": {
                "states": {
                    "0": {
                        "labels": {
                            "bottom": {
                                "text": "25",
                                "color": [
                                    255,
                                    255,
                                    255,
                                    255
                                ],
                                "font_size": null,
                                "font_family": ""
                            }
                        },
                        "background": {},
                        "media": {
                            "path": "/home/jaryed/.var/app/com.core447.StreamController/data/Assets/AssetManager/Assets/Audio-On.png"
                        },
                        "actions": [
                            {
                                "id": "com_core447_OSPlugin::RunCommand",
                                "settings": {
                                    "command": "/mnt/DATA_LINUX/code/tools/streamScripts/play-wav_history.sh 25"
                                }
                            }
                        ]
                    }
                }
            },
            "7x0": {
                "states": {
                    "0": {
                        "labels": {
                            "bottom": {
                                "text": "29",
                                "color": [
                                    255,
                                    255,
                                    255,
                                    255
                                ],
                                "font_size": null,
                                "font_family": ""
                            }
                        },
                        "background": {},
                        "media": {
                            "path": "/home/jaryed/.var/app/com.core447.StreamController/data/Assets/AssetManager/Assets/Audio-On.png"
                        },
                        "actions": [
                            {
                                "id": "com_core447_OSPlugin::RunCommand",
                                "settings": {
                                    "command": "/mnt/DATA_LINUX/code/tools/streamScripts/play-wav_history.sh 29"
                                }
                            }
                        ]
                    }
                }
            },
            "0x1": {
                "states": {
                    "0": {
                        "labels": {
                            "bottom": {
                                "text": "2",
                                "color": [
                                    255,
                                    255,
                                    255,
                                    255
                                ],
                                "font_size": null,
                                "font_family": ""
                            }
                        },
                        "background": {},
                        "media": {
                            "path": "/home/jaryed/.var/app/com.core447.StreamController/data/Assets/AssetManager/Assets/Audio-On.png"
                        },
                        "actions": [
                            {
                                "id": "com_core447_OSPlugin::RunCommand",
                                "settings": {
                                    "command": "/mnt/DATA_LINUX/code/tools/streamScripts/play-wav_history.sh 2"
                                }
                            }
                        ]
                    }
                }
            },
            "1x1": {
                "states": {
                    "0": {
                        "labels": {
                            "bottom": {
                                "text": "6",
                                "color": [
                                    255,
                                    255,
                                    255,
                                    255
                                ],
                                "font_size": null,
                                "font_family": ""
                            }
                        },
                        "background": {},
                        "media": {
                            "path": "/home/jaryed/.var/app/com.core447.StreamController/data/Assets/AssetManager/Assets/Audio-On.png"
                        },
                        "actions": [
                            {
                                "id": "com_core447_OSPlugin::RunCommand",
                                "settings": {
                                    "command": "/mnt/DATA_LINUX/code/tools/streamScripts/play-wav_history.sh 6"
                                }
                            }
                        ]
                    }
                }
            },
            "2x1": {
                "states": {
                    "0": {
                        "labels": {
                            "bottom": {
                                "text": "10",
                                "color": [
                                    255,
                                    255,
                                    255,
                                    255
                                ],
                                "font_size": null,
                                "font_family": ""
                            }
                        },
                        "background": {},
                        "media": {
                            "path": "/home/jaryed/.var/app/com.core447.StreamController/data/Assets/AssetManager/Assets/Audio-On.png"
                        },
                        "actions": [
                            {
                                "id": "com_core447_OSPlugin::RunCommand",
                                "settings": {
                                    "command": "/mnt/DATA_LINUX/code/tools/streamScripts/play-wav_history.sh 10"
                                }
                            }
                        ]
                    }
                }
            },
            "3x1": {
                "states": {
                    "0": {
                        "labels": {
                            "bottom": {
                                "text": "14",
                                "color": [
                                    255,
                                    255,
                                    255,
                                    255
                                ],
                                "font_size": null,
                                "font_family": ""
                            }
                        },
                        "background": {},
                        "media": {
                            "path": "/home/jaryed/.var/app/com.core447.StreamController/data/Assets/AssetManager/Assets/Audio-On.png"
                        },
                        "actions": [
                            {
                                "id": "com_core447_OSPlugin::RunCommand",
                                "settings": {
                                    "command": "/mnt/DATA_LINUX/code/tools/streamScripts/play-wav_history.sh 14"
                                }
                            }
                        ]
                    }
                }
            },
            "4x1": {
                "states": {
                    "0": {
                        "labels": {
                            "bottom": {
                                "text": "18",
                                "color": [
                                    255,
                                    255,
                                    255,
                                    255
                                ],
                                "font_size": null,
                                "font_family": ""
                            }
                        },
                        "background": {},
                        "media": {
                            "path": "/home/jaryed/.var/app/com.core447.StreamController/data/Assets/AssetManager/Assets/Audio-On.png"
                        },
                        "actions": [
                            {
                                "id": "com_core447_OSPlugin::RunCommand",
                                "settings": {
                                    "command": "/mnt/DATA_LINUX/code/tools/streamScripts/play-wav_history.sh 18"
                                }
                            }
                        ]
                    }
                }
            },
            "5x1": {
                "states": {
                    "0": {
                        "labels": {
                            "bottom": {
                                "text": "22",
                                "color": [
                                    255,
                                    255,
                                    255,
                                    255
                                ],
                                "font_size": null,
                                "font_family": ""
                            }
                        },
                        "background": {},
                        "media": {
                            "path": "/home/jaryed/.var/app/com.core447.StreamController/data/Assets/AssetManager/Assets/Audio-On.png"
                        },
                        "actions": [
                            {
                                "id": "com_core447_OSPlugin::RunCommand",
                                "settings": {
                                    "command": "/mnt/DATA_LINUX/code/tools/streamScripts/play-wav_history.sh 22"
                                }
                            }
                        ]
                    }
                }
            },
            "6x1": {
                "states": {
                    "0": {
                        "labels": {
                            "bottom": {
                                "text": "26",
                                "color": [
                                    255,
                                    255,
                                    255,
                                    255
                                ],
                                "font_size": null,
                                "font_family": ""
                            }
                        },
                        "background": {},
                        "media": {
                            "path": "/home/jaryed/.var/app/com.core447.StreamController/data/Assets/AssetManager/Assets/Audio-On.png"
                        },
                        "actions": [
                            {
                                "id": "com_core447_OSPlugin::RunCommand",
                                "settings": {
                                    "command": "/mnt/DATA_LINUX/code/tools/streamScripts/play-wav_history.sh 26"
                                }
                            }
                        ]
                    }
                }
            },
            "7x1": {
                "states": {
                    "0": {
                        "labels": {
                            "bottom": {
                                "text": "30",
                                "color": [
                                    255,
                                    255,
                                    255,
                                    255
                                ],
                                "font_size": null,
                                "font_family": ""
                            }
                        },
                        "background": {},
                        "media": {
                            "path": "/home/jaryed/.var/app/com.core447.StreamController/data/Assets/AssetManager/Assets/Audio-On.png"
                        },
                        "actions": [
                            {
                                "id": "com_core447_OSPlugin::RunCommand",
                                "settings": {
                                    "command": "/mnt/DATA_LINUX/code/tools/streamScripts/play-wav_history.sh 30"
                                }
                            }
                        ]
                    }
                }
            },
            "0x2": {
                "states": {
                    "0": {
                        "labels": {
                            "bottom": {
                                "text": "3",
                                "color": [
                                    255,
                                    255,
                                    255,
                                    255
                                ],
                                "font_size": null,
                                "font_family": ""
                            }
                        },
                        "background": {},
                        "media": {
                            "path": "/home/jaryed/.var/app/com.core447.StreamController/data/Assets/AssetManager/Assets/Audio-On.png"
                        },
                        "actions": [
                            {
                                "id": "com_core447_OSPlugin::RunCommand",
                                "settings": {
                                    "command": "/mnt/DATA_LINUX/code/tools/streamScripts/play-wav_history.sh 3"
                                }
                            }
                        ]
                    }
                }
            },
            "1x2": {
                "states": {
                    "0": {
                        "labels": {
                            "bottom": {
                                "text": "7",
                                "color": [
                                    255,
                                    255,
                                    255,
                                    255
                                ],
                                "font_size": null,
                                "font_family": ""
                            }
                        },
                        "background": {},
                        "media": {
                            "path": "/home/jaryed/.var/app/com.core447.StreamController/data/Assets/AssetManager/Assets/Audio-On.png"
                        },
                        "actions": [
                            {
                                "id": "com_core447_OSPlugin::RunCommand",
                                "settings": {
                                    "command": "/mnt/DATA_LINUX/code/tools/streamScripts/play-wav_history.sh 7"
                                }
                            }
                        ]
                    }
                }
            },
            "2x2": {
                "states": {
                    "0": {
                        "labels": {
                            "bottom": {
                                "text": "11",
                                "color": [
                                    255,
                                    255,
                                    255,
                                    255
                                ],
                                "font_size": null,
                                "font_family": ""
                            }
                        },
                        "background": {},
                        "media": {
                            "path": "/home/jaryed/.var/app/com.core447.StreamController/data/Assets/AssetManager/Assets/Audio-On.png"
                        },
                        "actions": [
                            {
                                "id": "com_core447_OSPlugin::RunCommand",
                                "settings": {
                                    "command": "/mnt/DATA_LINUX/code/tools/streamScripts/play-wav_history.sh 11"
                                }
                            }
                        ]
                    }
                }
            },
            "3x2": {
                "states": {
                    "0": {
                        "labels": {
                            "bottom": {
                                "text": "15",
                                "color": [
                                    255,
                                    255,
                                    255,
                                    255
                                ],
                                "font_size": null,
                                "font_family": ""
                            }
                        },
                        "background": {},
                        "media": {
                            "path": "/home/jaryed/.var/app/com.core447.StreamController/data/Assets/AssetManager/Assets/Audio-On.png"
                        },
                        "actions": [
                            {
                                "id": "com_core447_OSPlugin::RunCommand",
                                "settings": {
                                    "command": "/mnt/DATA_LINUX/code/tools/streamScripts/play-wav_history.sh 15"
                                }
                            }
                        ]
                    }
                }
            },
            "4x2": {
                "states": {
                    "0": {
                        "labels": {
                            "bottom": {
                                "text": "19",
                                "color": [
                                    255,
                                    255,
                                    255,
                                    255
                                ],
                                "font_size": null,
                                "font_family": ""
                            }
                        },
                        "background": {},
                        "media": {
                            "path": "/home/jaryed/.var/app/com.core447.StreamController/data/Assets/AssetManager/Assets/Audio-On.png"
                        },
                        "actions": [
                            {
                                "id": "com_core447_OSPlugin::RunCommand",
                                "settings": {
                                    "command": "/mnt/DATA_LINUX/code/tools/streamScripts/play-wav_history.sh 19"
                                }
                            }
                        ]
                    }
                }
            },
            "5x2": {
                "states": {
                    "0": {
                        "labels": {
                            "bottom": {
                                "text": "23",
                                "color": [
                                    255,
                                    255,
                                    255,
                                    255
                                ],
                                "font_size": null,
                                "font_family": ""
                            }
                        },
                        "background": {},
                        "media": {
                            "path": "/home/jaryed/.var/app/com.core447.StreamController/data/Assets/AssetManager/Assets/Audio-On.png"
                        },
                        "actions": [
                            {
                                "id": "com_core447_OSPlugin::RunCommand",
                                "settings": {
                                    "command": "/mnt/DATA_LINUX/code/tools/streamScripts/play-wav_history.sh 23"
                                }
                            }
                        ]
                    }
                }
            },
            "6x2": {
                "states": {
                    "0": {
                        "labels": {
                            "bottom": {
                                "text": "27",
                                "color": [
                                    255,
                                    255,
                                    255,
                                    255
                                ],
                                "font_size": null,
                                "font_family": ""
                            }
                        },
                        "background": {},
                        "media": {
                            "path": "/home/jaryed/.var/app/com.core447.StreamController/data/Assets/AssetManager/Assets/Audio-On.png"
                        },
                        "actions": [
                            {
                                "id": "com_core447_OSPlugin::RunCommand",
                                "settings": {
                                    "command": "/mnt/DATA_LINUX/code/tools/streamScripts/play-wav_history.sh 27"
                                }
                            }
                        ]
                    }
                }
            },
            "7x2": {
                "states": {
                    "0": {
                        "labels": {
                            "bottom": {
                                "text": "31",
                                "color": [
                                    255,
                                    255,
                                    255,
                                    255
                                ],
                                "font_size": null,
                                "font_family": ""
                            }
                        },
                        "background": {},
                        "media": {
                            "path": "/home/jaryed/.var/app/com.core447.StreamController/data/Assets/AssetManager/Assets/Audio-On.png"
                        },
                        "actions": [
                            {
                                "id": "com_core447_OSPlugin::RunCommand",
                                "settings": {
                                    "command": "/mnt/DATA_LINUX/code/tools/streamScripts/play-wav_history.sh 31"
                                }
                            }
                        ]
                    }
                }
            },
            "0x3": {
                "states": {
                    "0": {
                        "labels": {
                            "bottom": {
                                "text": "4",
                                "color": [
                                    255,
                                    255,
                                    255,
                                    255
                                ],
                                "font_size": null,
                                "font_family": ""
                            }
                        },
                        "background": {},
                        "media": {
                            "path": "/home/jaryed/.var/app/com.core447.StreamController/data/Assets/AssetManager/Assets/Audio-On.png"
                        },
                        "actions": [
                            {
                                "id": "com_core447_OSPlugin::RunCommand",
                                "settings": {
                                    "command": "/mnt/DATA_LINUX/code/tools/streamScripts/play-wav_history.sh 4"
                                }
                            }
                        ]
                    }
                }
            },
            "1x3": {
                "states": {
                    "0": {
                        "labels": {
                            "bottom": {
                                "text": "8",
                                "color": [
                                    255,
                                    255,
                                    255,
                                    255
                                ],
                                "font_size": null,
                                "font_family": ""
                            }
                        },
                        "background": {},
                        "media": {
                            "path": "/home/jaryed/.var/app/com.core447.StreamController/data/Assets/AssetManager/Assets/Audio-On.png"
                        },
                        "actions": [
                            {
                                "id": "com_core447_OSPlugin::RunCommand",
                                "settings": {
                                    "command": "/mnt/DATA_LINUX/code/tools/streamScripts/play-wav_history.sh 8"
                                }
                            }
                        ]
                    }
                }
            },
            "2x3": {
                "states": {
                    "0": {
                        "labels": {
                            "bottom": {
                                "text": "12",
                                "color": [
                                    255,
                                    255,
                                    255,
                                    255
                                ],
                                "font_size": null,
                                "font_family": ""
                            }
                        },
                        "background": {},
                        "media": {
                            "path": "/home/jaryed/.var/app/com.core447.StreamController/data/Assets/AssetManager/Assets/Audio-On.png"
                        },
                        "actions": [
                            {
                                "id": "com_core447_OSPlugin::RunCommand",
                                "settings": {
                                    "command": "/mnt/DATA_LINUX/code/tools/streamScripts/play-wav_history.sh 12"
                                }
                            }
                        ]
                    }
                }
            },
            "3x3": {
                "states": {
                    "0": {
                        "labels": {
                            "bottom": {
                                "text": "16",
                                "color": [
                                    255,
                                    255,
                                    255,
                                    255
                                ],
                                "font_size": null,
                                "font_family": ""
                            }
                        },
                        "background": {},
                        "media": {
                            "path": "/home/jaryed/.var/app/com.core447.StreamController/data/Assets/AssetManager/Assets/Audio-On.png"
                        },
                        "actions": [
                            {
                                "id": "com_core447_OSPlugin::RunCommand",
                                "settings": {
                                    "command": "/mnt/DATA_LINUX/code/tools/streamScripts/play-wav_history.sh 16"
                                }
                            }
                        ]
                    }
                }
            },
            "4x3": {
                "states": {
                    "0": {
                        "labels": {
                            "bottom": {
                                "text": "20",
                                "color": [
                                    255,
                                    255,
                                    255,
                                    255
                                ],
                                "font_size": null,
                                "font_family": ""
                            }
                        },
                        "background": {},
                        "media": {
                            "path": "/home/jaryed/.var/app/com.core447.StreamController/data/Assets/AssetManager/Assets/Audio-On.png"
                        },
                        "actions": [
                            {
                                "id": "com_core447_OSPlugin::RunCommand",
                                "settings": {
                                    "command": "/mnt/DATA_LINUX/code/tools/streamScripts/play-wav_history.sh 20"
                                }
                            }
                        ]
                    }
                }
            },
            "5x3": {
                "states": {
                    "0": {
                        "labels": {
                            "bottom": {
                                "text": "24",
                                "color": [
                                    255,
                                    255,
                                    255,
                                    255
                                ],
                                "font_size": null,
                                "font_family": ""
                            }
                        },
                        "background": {},
                        "media": {
                            "path": "/home/jaryed/.var/app/com.core447.StreamController/data/Assets/AssetManager/Assets/Audio-On.png"
                        },
                        "actions": [
                            {
                                "id": "com_core447_OSPlugin::RunCommand",
                                "settings": {
                                    "command": "/mnt/DATA_LINUX/code/tools/streamScripts/play-wav_history.sh 24"
                                }
                            }
                        ]
                    }
                }
            },
            "6x3": {
                "states": {
                    "0": {
                        "labels": {
                            "bottom": {
                                "text": "28",
                                "color": [
                                    255,
                                    255,
                                    255,
                                    255
                                ],
                                "font_size": null,
                                "font_family": ""
                            }
                        },
                        "background": {},
                        "media": {
                            "path": "/home/jaryed/.var/app/com.core447.StreamController/data/Assets/AssetManager/Assets/Audio-On.png"
                        },
                        "actions": [
                            {
                                "id": "com_core447_OSPlugin::RunCommand",
                                "settings": {
                                    "command": "/mnt/DATA_LINUX/code/tools/streamScripts/play-wav_history.sh 28"
                                }
                            }
                        ]
                    }
                }
            },
            "7x3": {
                "states": {
                    "0": {
                        "labels": {
                            "bottom": {
                                "text": "Back To\nMain Page",
                                "color": [
                                    255,
                                    255,
                                    255,
                                    255
                                ],
                                "font_size": null,
                                "font_family": ""
                            }
                        },
                        "background": {},
                        "media": {
                            "path": "/home/jaryed/.var/app/com.core447.StreamController/data/Assets/AssetManager/Assets/Misc-Home.png"
                        },
                        "actions": [
                            {
                                "id": "com_core447_DeckPlugin::ChangePage",
                                "settings": {
                                    "selected_page": "/home/jaryed/.var/app/com.core447.StreamController/data/pages/ui_CL16L2A01359_1.json",
                                    "deck_number": null
                                }
                            }
                        ]
                    }
                }
            }
        },
        "auto-change": {
            "enable": false,
            "wm_class": "",
            "title": "",
            "stay_on_page": true
        }
    }
}